{
  "7adc6cdde1172c646f8dda7fcb1186d148e59e6d2a40774bd7e03281a653f19c": true,
  "89ed26367cdb9b771858e026f2eb95bfdb90e5ae943e716575327ec325f39c44": true,
  "49e75367010f19aae0b50fcd7dd8baa43a96e2fb7151b16a86a52d6ab3ecb5a0": true,
  "f779399ecb9f9ab6619ce2c7d84f1a0a46c6918952827f82072c7fa0f293cd43": true,
  "1caabc10815c96b8955419ae88762989700ceea9325413601845720ea4ba5ef7": true,
  "4e0a61e4515e2f45ee23216a3b5a4e02f4d008279e100b1093ba8e16370c468b": true,
  "c933e197d57d2aed2a7fb601b3fa6d4df79e54bb2493a6bc232b3bfc061966f5": true,
  "6d44023d4ff73b49f97a3a1af5a665e0e39f434e92897a2a21e66c8f97826c20": true,
  "94cd05856b16a51b9e89c9ada2bfe0c6292831406902fc4585712f9390c14772": true,
  "ae1fd525a0453903c495cbc83322d1c46d269d8490be91d184f89c14eea0fa15": true,
  "2980c1b751e7073bd771390700201dec36ea6d84ab2b3c5c44a5b6456b03e099": true,
  "6b198fb1cf55ddbc56cb7e625ab00936dcb1ecb346538fb3b3c8d8341313bc76": true,
  "61dc0bea4d0595668c8c0041c8f796ec81e4aaed05961f854909e9a53eb1525d": true,
  "a46e3cca20f6915051ac3f4b6f9871d41f8b1430e607b21bca855be12a4fe729": true,
  "ede31367460229ff68c6ab4b19c9bc1b48c50538272c4d02f732948f6f1013ee": true,
  "335e7272507f680591f3b32ff874919ad6af3d1f9a8a5b3c69e587829a8c847a": true,
  "dacb868178f9b51469401b00e21c6e9293dcdea9020b34cab6058c13dc67573b": true,
  "6203f470beded2f53ce3c193ea8f9d0f9ddb0dfdec7c0bfcfb8a13c9af37c9c3": true,
  "0f100e5b259eab974aea34b608efb00f5ece62dbebdb23d15de3f93af5a5bc2e": true,
  "38bbba54ca380cb94a2a4270e3a167bbef75eed668286b7df900f959f4ade31d": true,
  "10171d8c28382d6af7af4ea6bdb7844aab595480197b0381ead338d351520c07": true,
  "364fe6e47dd533373f0206a91bc06347207e3b894058e31ed5de89ecd2fbe26e": true,
  "0b3a8aa614cfc672f3c226fe2164e050d3a409f34a368b03b913947ff094bd42": true,
  "0e173874bfaad6051dabf11e71479fec22bc4670ec57898b4326ec84684d4abb": true,
  "f7e7ae5805c541114da5defeedfa25f7c6226bded83513a0a6aee4750669282e": true,
  "fab92f1c96b0f6918bcb05877b413b3dacd04cff03a95d18a50e4dc3aac6675f": true,
  "52b72f03e567df186bd0aeb372c591e7c40e9c074bd7e6ff167b5058d9d1ad19": true,
  "50d0f0cc534de7a68798714547c614571713176186086ecdf5499715d4771a3a": true,
  "f5f9069571584c3e9f507aa185cb274f8de8c19a3bcebb2ab053a531de0ba6dd": true,
  "82a067846fbbc8ae59cc3ab53aa47db70db494a34e45a2be97ad00eeb2f1f48f": true,
  "0c315094cd0bf949d99ac2412b9c56d342a8395a721aeb959197db9cac51e1b6": true,
  "ed1690f6bf19ae4fc8518f5ef75e782105f2fe5c89e8f3ea353567d2aeec8a15": true,
  "5a3152742f9ba208a0c42a6faf11d5d3222a9020c17a05c87c9fcf76d173320d": true,
  "1b22ccd9e8e529bdc8f1200d4a8dc75ada88a2dfc7d40e463e29f3b6710124ff": true,
  "93458742b9d51beb378a1ee78b226dfcf6b498c14d34b030ba1f044e2a347c4c": true,
  "aed6812b04e2b07142d65945138c93fa540707a0efe7b8909ed538ae603bcb05": true,
  "662fd19a1b22932b8d0711b8fe0946b4ee47ca8a63a70e5d602f14d482477ffe": true,
  "8e6c655671385d5b4330ca3e95620002f0cba6d21cb24eb87d523c59088f0539": true,
  "174dfea0034521ee5473ccd8552b45d66da76a21a00e3280cd81ae3e223d5810": true,
  "7ea4c1961507c0ac08f01503d605a9b125693e55ab79da4365f86b6cb11c02b9": true,
  "b9a8f86f511e7fff42cb695b381e215d42adebe57109bad71fee4b4d3e0d095a": true,
  "84a376cbf00438e578910cb300fa760ea20858bc33043d1e6f34db7d79ff89c9": true,
  "a82d1b06a4f2ff5bcb54ae94daedacb775ea886ef1883e833fb2ded00afa81db": true,
  "6e608caf1f5fa95c9a90063b5bc967043f4bf8ec3d5182e700e82599b2749305": true,
  "1d6b93d034002ce29fbc725070b4f13a4fa954846b8094d265084ec2d4931e34": true,
  "6be9ca0bd39a802f56c1bb3885599f40023ce146f88b0461e2cdac8adb75f004": true,
  "89c6f94d6f305af3803e6f829b3a935cb69f5a117c41eeeac90286b7cbb94f36": true,
  "4fabec032f38907d473314ef93eeb41275918bbba46488dcdaa362d7eb75f201": true,
  "1d1b224c314b2a05e0a50555936e2bae225a2d377062f0448653109c27b502e7": true,
  "981b0db52716b10fe082838d99b2deacfdb7a0701e63737b3b530e22b5bf773e": true,
  "6283e42beb6bce1305aaca04ea53d092b7b032a354424c862ed69472a19ce39c": true,
  "ed6e5d57556dbb2c10fc5982f5fdd972da5db0c80efa67a09603e0048f52587b": true,
  "ae76122f8e23e803f6407f24415d37d92dde021d9a26cbd714db8785fbdf043e": true,
  "d3a92c7363b7042a6aa804cad3d7cfbc9e835d1d99f5126493df46862e9fc668": true,
  "e1dd62b0e6000c85da63bf63883b4e10803ef485530b21885b403adeb85e0507": true,
  "fbab5257ba802c46030e677e5406081c57aa81d2abf309e90c31766781aa957f": true,
  "4daa3ab4029ff77894afe3277091bfafebd7f698851a13e811e7740d71fb57a0": true,
  "d011523021c5f0ce035d380a0dbb36245a207c2b918e04d04af35fd0e1383c43": true,
  "6ed0936588e11a31a37f73a851659ab31b7d7294408d893841401f2b23fa8dd7": true,
  "ef77875e6f4eb8047720867138c64c14f77e131326dcca2c42bf88c683d13af9": true,
  "72d2f699e8124d93c072d61636dbb29a98b7ce10ed468cb2a650e5bf27794ce0": true,
  "05fc358a6c971c4452a136102b097748f777513d898322875c3825ce1a2bd16b": true,
  "37ac4b396c05b8a98b56fbac81b4e2cea29cdce58b7d4eda69d50c0c82391670": true,
  "316d15c0d9bef72dce8e631a5b3c6f54ee4e982c120f75570c1bc0122cc98f39": true,
  "86e3aedf9bd93c43e28bc3a5ba7949f5126fff4428f4a9bb764e965ad35f2669": true,
  "bdaa1a23f1b3b22266d55d61506c062a3acf9fab9ee8b0692dfe1d3e2b9c9730": true,
  "4ca291d16fa51bc77caff79110d0002e8c42b70da696d0a458549d184a85257a": true,
  "a045c205cf71a4a9a9fa3291ad1cef24c30df35a02e1f8c21fbcabdf69ca9c99": true,
  "e6ed0ca130222c593c0bc438de8a92c89f29886ac5a3a4611847d61b1bfeb3a5": true,
  "cf144f15384eecfdab155259b8b919e8fd38867a5da91b642af21f95ba203f6d": true,
  "46164fb23581f3e2b17e2b92a63d824322d2210590867244f6b2bfbfd70dd02d": true,
  "ccc7b11ad25a74b2cc1fee69aa2c332c4fa76db1e9db1cb92c765911c04f2084": true,
  "934684fa7ac61ea64163cb202aa7b6826ad062ea62d5de7c41ac52e8cd3f4041": true,
  "e4734f81d32f6523e363f13f77a90e9322617a76bd4f9c6bd3fc3f75351f9462": true,
  "28fcd8f358b7728f6e878110261ce8ad7574b1417f33650238c1229a8b9e197d": true,
  "6ed49d38cac022ce46ffc7b8dc15d5f15274f2d80bf0f0d0fbaf27cb4355dce2": true,
  "cfcbab117e39ebe6c1744e3a69b3f1a3b14c45f0bade9163ef2d7ce7a472a100": true,
  "25187c45125d9ed601bcac5b2f8d13efc610a7a9afcbfbf8387b230072150a67": true,
  "aa3fa6ede6403d4e8680beae0f35df465500b334921f5c64d02d4fbee0b772e3": true,
  "b6ab2d905db11a193e9ea7955867efcffe32f1bc392e9fa3d250e59615e303aa": true,
  "9d63d3194b3e9d3c30c5ea37329ba4dcd15ac42c3029fece7ef5059adcd8ee11": true
}